^C:\USERS\MAIMU\SOURCE\REPOS\TEMA1_CC\TEMA1_CC\SOURCE.CPP
C:\USERS\MAIMU\SOURCE\REPOS\TEMA1_CC\TEMA1_CC\DEBUG\VC141.PDB
C:\USERS\MAIMU\SOURCE\REPOS\TEMA1_CC\TEMA1_CC\DEBUG\VC141.IDB
C:\USERS\MAIMU\SOURCE\REPOS\TEMA1_CC\TEMA1_CC\DEBUG\SOURCE.OBJ
